…
Let’s start with a for loop.

``` r
output = vector("list", length = 100)

for (i in 1:100) {
  
  output[[i]] = sim_mean_sd(samp_size = 30)
  
}

bind_rows(output)
```

    ## # A tibble: 100 x 2
    ##     mean    sd
    ##    <dbl> <dbl>
    ##  1  3.86  3.38
    ##  2  3.25  3.89
    ##  3  2.40  3.67
    ##  4  3.29  4.01
    ##  5  3.20  4.09
    ##  6  2.99  3.20
    ##  7  2.88  4.32
    ##  8  4.64  3.70
    ##  9  2.31  4.25
    ## 10  3.24  3.62
    ## # … with 90 more rows
…
